<?xml version="1.0" encoding="UTF-8"?>
<svg width="27px" height="5px" viewBox="0 0 27 5" version="1.1" xmlns="http://www.w3.org/2000/svg" xmlns:xlink="http://www.w3.org/1999/xlink">
    <!-- Generator: Sketch 44.1 (41455) - http://www.bohemiancoding.com/sketch -->
    <title>Group</title>
    <desc>Created with Sketch.</desc>
    <defs></defs>
    <g id="Welcome" stroke="none" stroke-width="1" fill="none" fill-rule="evenodd">
        <g id="Home" transform="translate(-546.000000, -1099.000000)">
            <g id="Intro" transform="translate(172.000000, 907.000000)">
                <g id="Group" transform="translate(374.000000, 192.000000)">
                    <path d="M0.5,2.5 L23.5,2.5" id="Line" stroke="#000000" stroke-linecap="square"></path>
                    <polygon id="Triangle" fill="#000000" points="27 2.5 21 5 21 0"></polygon>
                </g>
            </g>
        </g>
    </g>
</svg>