<?xml version="1.0" encoding="UTF-8"?>
<svg width="68px" height="31px" viewBox="0 0 68 31" version="1.1" xmlns="http://www.w3.org/2000/svg" xmlns:xlink="http://www.w3.org/1999/xlink">
    <!-- Generator: Sketch 44.1 (41455) - http://www.bohemiancoding.com/sketch -->
    <title>Page 1</title>
    <desc>Created with Sketch.</desc>
    <defs></defs>
    <g id="Page-1" stroke="none" stroke-width="1" fill="none" fill-rule="evenodd">
        <g fill="#221F20">
            <polygon id="Fill-1" points="52.4334732 5.43859649e-05 51.4563187 0.961326316 66.7817496 16.0379316 67.7589041 15.0766596"></polygon>
            <polygon id="Fill-2" points="51.4562634 30.0326912 52.4334179 30.9939632 67.7588488 15.9173579 66.7816943 14.956086"></polygon>
            <polygon id="Fill-3" points="0 16.1167368 67.2702439 16.1167368 67.2702439 14.7573596 0 14.7573596"></polygon>
        </g>
    </g>
</svg>