<?xml version="1.0" encoding="UTF-8"?>
<svg width="61px" height="61px" viewBox="0 0 61 61" version="1.1" xmlns="http://www.w3.org/2000/svg" xmlns:xlink="http://www.w3.org/1999/xlink">
    <!-- Generator: Sketch 44.1 (41455) - http://www.bohemiancoding.com/sketch -->
    <title>Play Button</title>
    <desc>Created with Sketch.</desc>
    <defs></defs>
    <g id="Welcome" stroke="none" stroke-width="1" fill="none" fill-rule="evenodd">
        <g id="Work----All-Work-Video-Hover" transform="translate(-482.000000, -582.000000)" stroke="#221F20" stroke-width="1.5">
            <g id="Play-Button" transform="translate(483.000000, 583.000000)">
                <path d="M22.6381212,16.1280523 L42.6695152,29.525075" id="Stroke-1"></path>
                <path d="M42.6696492,29.5249856 L22.6382553,42.9220083" id="Stroke-2"></path>
                <path d="M58.7149227,29.5249856 C58.7149227,45.6462886 45.6459758,58.7147886 29.5251197,58.7147886 C13.4038167,58.7147886 0.335316667,45.6462886 0.335316667,29.5249856 C0.335316667,13.4036826 13.4038167,0.335182576 29.5251197,0.335182576 C45.6459758,0.335182576 58.7149227,13.4036826 58.7149227,29.5249856 Z" id="Stroke-3"></path>
            </g>
        </g>
    </g>
</svg>